[gd_scene load_steps=2 format=2]

[ext_resource path="res://Textures/tiles/tileset_1.png" type="Texture" id=1]

[node name="4Platform" type="StaticBody2D" index="0"]

position = Vector2( 120, 20 )
scale = Vector2( 3.75, 0.625 )
input_pickable = false
collision_layer = 1
collision_mask = 1
constant_linear_velocity = Vector2( 0, 0 )
constant_angular_velocity = 0.0
friction = 1.0
bounce = 0.0

[node name="TerrainCollision" type="CollisionPolygon2D" parent="." index="0"]

position = Vector2( 0, -1 )
build_mode = 0
polygon = PoolVector2Array( 32, -31, 32, 33, -32, 33, -32, -31 )
one_way_collision = true

[node name="Sprite" type="Sprite" parent="." index="1"]

scale = Vector2( 0.32, 1.28 )
texture = ExtResource( 1 )
region_enabled = true
region_rect = Rect2( 0, 0, 200, 50 )
_sections_unfolded = [ "Offset", "Region" ]


