[gd_scene load_steps=2 format=2]

[ext_resource path="res://Textures/tiles/tileset_1.png" type="Texture" id=1]

[node name="6Platform" type="StaticBody2D" index="0"]

position = Vector2( 180, 20 )
scale = Vector2( 5.625, 0.625 )
input_pickable = false
collision_layer = 1
collision_mask = 1
constant_linear_velocity = Vector2( 0, 0 )
constant_angular_velocity = 0.0
friction = 1.0
bounce = 0.0
_sections_unfolded = [ "Collision", "Transform" ]

[node name="TerrainCollision" type="CollisionPolygon2D" parent="." index="0"]

build_mode = 0
polygon = PoolVector2Array( 32, -32, 32, 32, -32, 32, -32, -32 )
one_way_collision = true

[node name="Sprite" type="Sprite" parent="." index="1"]

position = Vector2( 3.8147e-06, 3.8147e-06 )
scale = Vector2( 0.213333, 1.28 )
texture = ExtResource( 1 )
region_enabled = true
region_rect = Rect2( 0, 0, 300, 50 )
_sections_unfolded = [ "Region" ]


